x,y
0.009164381920235165, 0.9881175962654145
0.0268195609521239, 0.965800480315173
0.044471121872318164, 0.9440459807334249
0.062113034494660435, 0.9237917914676597
0.07975374107977126, 0.903725140991392
0.09738841747872454, 0.8845961844626136
0.11502068180321487, 0.8658423055128308
0.13265174009047367, 0.8472759653525457
0.15028521045219548, 0.8283345476132653
0.16791747477668575, 0.8095806686634823
0.18554853306394456, 0.7910143285031974
0.20317597323950895, 0.773010604711406
0.22079738322891576, 0.7559445748671036
0.23841638114385957, 0.739253622601797
0.25602452472371995, 0.7242505194419708
0.27362181396849683, 0.7109352653876249
0.2912094549154217, 0.6991203216492619
0.30879347775065213, 0.6878679942793922
0.32636785228803056, 0.678115977225505
0.34394463889987203, 0.6679888825926223
0.36151057117663, 0.6595496370652201
0.379069267229999, 0.6522356242748049
0.39661952102274745, 0.6462343830108743
0.4141661567038015, 0.6407957581154373
0.4317031440870035, 0.6368574435359828
0.449236513358511, 0.6334817453250221
0.4667481739598516, 0.6334817453250221
0.48428395530582213, 0.6297309695350655
0.5017944098699312, 0.6299185083245633
0.5192831557638733, 0.6334817453250221
0.5367948163652139, 0.6334817453250221
0.554283562259156, 0.6370449823254809
0.5717795443764873, 0.6394829865889524
0.5892610540470403, 0.644171456326398
0.6067268852335841, 0.6512979303273156
0.6241890983084332, 0.6589870206967268
0.6416440751598934, 0.6678013438031245
0.6590869916390386, 0.6784910548045009
0.6765262900064893, 0.6897433821743704
0.6939619702622456, 0.7015583259127336
0.7113952384435389, 0.7137483472300923
0.7288200643642117, 0.7272511400739361
0.7462352419870324, 0.7422542432337622
0.7636504196098532, 0.7572573463935883
0.7810571549720535, 0.7735732210798993
0.7984578601480964, 0.7908267897136996
0.8158573592869077, 0.8082678971369976
0.8332532403140245, 0.8262716209287893
0.8506491213411413, 0.8442753447205804
0.8680413842565639, 0.8628416848808653
0.8854360592464491, 0.8810329474621548
0.9028271161246401, 0.8997868264119377
0.9202097307422102, 0.9198534768882052
0.9375802849874658, 0.941795515259451
0.954962899605036, 0.9618621657357185
0.9723527504459953, 0.9808035834749993
0.9897763703294368, 0.9944939151083407
1.0000976369565904, 0.9986197684772928
