x,y
0.009073029449633924, 0.9894512310297554
0.026574907282072346, 0.967129540962697
0.044088982759356105, 0.9435270981868729
0.061576920426256926, 0.9226691255012609
0.07907531321731093, 0.9007133647795638
0.09655628080144293, 0.8805872507846748
0.11403202082349836, 0.8610100308078288
0.1315025332834772, 0.8419817048490246
0.14895736305722626, 0.824600060944348
0.1664087077895909, 0.8075843463850327
0.18386876512541653, 0.7896538084623137
0.20132185237847341, 0.7724551292303179
0.21876622702806922, 0.7561712733617258
0.2362036315948963, 0.7406192761838573
0.25362361095480146, 0.7268969257327964
0.27103662023193764, 0.7139064339724592
0.2884426594263052, 0.7016478009028451
0.3058452135792883, 0.6897550971785926
0.32323034252534943, 0.6796920401811484
0.34061721399210265, 0.6694460185110229
0.3579918878140107, 0.6604807495496634
0.3753595915531498, 0.6522473392790271
0.392718582688828, 0.6449287523717948
0.4100740887831217, 0.6379760948099242
0.42741391219118563, 0.6326701193021806
0.44474502299578866, 0.6282789671578413
0.4620656786762385, 0.6249856030495866
0.4793654241083819, 0.6238878150135019
0.496689564830216, 0.6202285215598857
0.5139823401795907, 0.6198625922145242
0.5312716304875809, 0.6198625922145242
0.5485870586059541, 0.617118122124312
0.5658885465587897, 0.6158373694155463
0.5831464714943203, 0.619130733523801
0.6004131090333119, 0.6215092742686517
0.6176588363239972, 0.6260833910856718
0.6348853958870683, 0.6326701193021806
0.6521067278880628, 0.6398057415367322
0.6693106346821354, 0.6487710104980917
0.6865093139141313, 0.6582851734774939
0.7037010230633584, 0.6685311951476189
0.7208787920470479, 0.6802409341991906
0.7380461059065841, 0.6930484612868473
0.7552029646419675, 0.7069537764105887
0.7723423981704286, 0.722688738261138
0.7894678915333522, 0.739887417493134
0.8065846722928147, 0.7580009200885338
0.8236875128867397, 0.7775781400653803
0.8407816408772038, 0.7980701834056307
0.8578792539090523, 0.8181962974005195
0.8749681543374396, 0.8392372347588124
0.8920518272037504, 0.8608270661351478
0.9091093622596785, 0.8851613676016952
0.9261634122742218, 0.9098615984136043
0.9432261748922263, 0.9336470058621091
0.9602941650723075, 0.9568835192925718
0.9773708678558494, 0.9792052093596302
0.9944981037394652, 0.9962209239189455
