x,y
0.009669689912343522, 0.9946814538978386
0.027074732183815002, 0.9789281955800211
0.04446414622282833, 0.9582989287352599
0.06184754940320391, 0.9357942739955205
0.07923636235635348, 0.9149774683612617
0.0966209677084566, 0.892847891200518
0.11400978066160616, 0.872031085566259
0.1313985936147557, 0.8512142799320002
0.14878860873963282, 0.8307725518767368
0.16617922495037368, 0.8105183626109715
0.18357284659043346, 0.7912018672926953
0.20097007474567585, 0.773010604711406
0.21836670181505446, 0.754631803340619
0.235766334313752, 0.7371906959173209
0.25317197767108723, 0.7216249763890012
0.2705782221142863, 0.7062467956501792
0.28798927524439555, 0.69236892522734
0.30540153054623226, 0.6788661323834964
0.32281859453497924, 0.6668636498556353
0.340241669382364, 0.6567365552227526
0.35766414314388495, 0.6464219218003722
0.3750914255923161, 0.6376075986939742
0.39252171347006615, 0.6297309695350655
0.4099544056912713, 0.6226044955341481
0.4273870979124764, 0.6154780215332305
0.44482459882059167, 0.6098518578482957
0.4622639029862984, 0.6047883105318546
0.4797080158389153, 0.6012250735313958
0.4971611449794888, 0.6004749183734044
0.5146166784635173, 0.6004749183734044
0.532072211947546, 0.6004749183734044
0.5495337562902123, 0.6023503062683826
0.5670001093197887, 0.6057260044793435
0.5844712710362755, 0.610602013006287
0.6019454381820811, 0.6164157154807197
0.6194238129289332, 0.6235421894816371
0.6369063952768317, 0.6319814350090394
0.6543907808823215, 0.6409832969049352
0.6718799751747215, 0.6514854691168135
0.6893733770681679, 0.6633004128551767
0.7068715876485244, 0.6766156669095225
0.7243740058299275, 0.6912436924903531
0.7418776261830582, 0.7062467956501792
0.7593824487079163, 0.7216249763890012
0.7768896755762295, 0.7377533122858142
0.7943999078738616, 0.7548193421301168
0.8119131456008127, 0.772823065921908
0.8294287876712187, 0.791576944871691
0.8469474351709437, 0.8112685177689627
0.8644702902717152, 0.8322728621927196
0.8819931453724865, 0.8532772066164762
0.8995178037308492, 0.8748441674087264
0.9170424620892119, 0.8964111282009768
0.9345683226193022, 0.9183531665722227
0.9520929809776648, 0.9399201273644726
0.9696206447653466, 0.9624247821042122
0.9871483085530282, 0.9849294368439514
0.9982958466206464, 0.9972444840209755
