x,y
0.008518328850230641, 0.9847082853780752
0.02388315850882962, 0.9623667078465947
0.039251683968182335, 0.9413297479811862
0.0546234432531946, 0.9214343285735908
0.06999612648839529, 0.901865063582513
0.08537250552434969, 0.8836004162575072
0.10074703665992726, 0.8646834600994655
0.11612526359625858, 0.8470711216074955
0.13150349053258986, 0.8294587831155253
0.14688125549382694, 0.8116833674152966
0.16226040638034667, 0.7943971833398447
0.17764279109252595, 0.7782525397222055
0.19302887160545892, 0.7634125137706385
0.20841449014329771, 0.7484094106108121
0.22380149460641918, 0.7338955390757629
0.23918942301972906, 0.7197078219572315
0.2545782753832274, 0.7058462592552182
0.26997128552257366, 0.6934523914275357
0.2853647576370142, 0.681221600808112
0.30076192555220843, 0.6702954278547604
0.31616140334287374, 0.6601846409427037
0.3315613431086333, 0.6502369312389058
0.34696636460042923, 0.6420830708259568
0.3623746199178847, 0.6350707508708207
0.3777851851108113, 0.6288738169569792
0.39319621227883206, 0.622839960251397
0.4086104732725124, 0.6179476440036276
0.42402519624128693, 0.6132184049641172
0.4394426910606267, 0.6094676291741605
0.45486295773053187, 0.6066953166337579
0.47028276242534284, 0.6037599268850962
0.48570903477147276, 0.6031076180520603
0.5011371550179796, 0.6031076180520603
0.5165652752644865, 0.6031076180520603
0.5319933955109933, 0.6031076180520603
0.5474279834088193, 0.605390698967686
0.5628644192070221, 0.6083260887163477
0.5783045508059786, 0.6125660961310813
0.5937483782056889, 0.6181107212118866
0.6091912816552107, 0.6233291918761739
0.6246369569552979, 0.6295261257900153
0.6400826322553849, 0.6357230597038563
0.6555301554558489, 0.6425723024507337
0.6709818364321609, 0.6508892400719417
0.686438137159415, 0.6608369497757394
0.7018953618368576, 0.6711108138960553
0.7173553583648655, 0.6823631412659248
0.7328167408181562, 0.6941047002605716
0.7482781232714467, 0.7058462592552182
0.7637441254756795, 0.7192185903324546
0.7792092037297238, 0.732264766993173
0.7946789017347102, 0.7469417157364813
0.8101485997396968, 0.7616186644797895
0.8256224555205312, 0.7777633080974287
0.841097235251554, 0.7942341061315856
0.8565743248580481, 0.8115202902070375
0.8720541863151073, 0.8297849375320434
0.8875340477721666, 0.8480495848570493
0.9030176050299795, 0.8676188498481272
0.918502086237981, 0.8875142692557226
0.933985643495794, 0.9070835342468004
0.9494738205045493, 0.9282835713204678
0.9649610735631159, 0.9491574539776173
0.9804492505718713, 0.9703574910512849
0.9938244689934465, 0.9883367532618375
