x,y
0.007475202857780028, 0.9899685162374388
0.026534611618120513, 0.966044649036635
0.04558059825961569, 0.945972929944435
0.06462587847380324, 0.9261039554895298
0.0836683329787602, 0.9070459595838047
0.1027114939110248, 0.8877852190407847
0.12175536127059705, 0.8683217338604694
0.1407964029209387, 0.849669227229334
0.159838150998588, 0.8308139759609041
0.17887636693969905, 0.8129724478789484
0.19791317002619485, 0.7955364090715829
0.2169457345488447, 0.7793168380879869
0.2359825376353405, 0.7618807992806211
0.25501792786722094, 0.7448502497478455
0.274046253826025, 0.7298471465880192
0.2930752862121365, 0.7146412987908981
0.3120979607524794, 0.7012601527294315
0.33111851601089926, 0.6884872405798497
0.35013695198739625, 0.6763225623421527
0.3691497365454318, 0.6657798412028155
0.388159695394237, 0.6560480986126578
0.4071682413884269, 0.64672184529709
0.4261676038276173, 0.640031272266357
0.44516696626680774, 0.6333406992356236
0.4641620901421524, 0.6278665940286601
0.483152975453651, 0.6236089566454659
0.5021367964920731, 0.6213787656352214
0.52111920467588, 0.6195540638995669
0.5400881907408416, 0.6215815102725166
0.5590557639511878, 0.6240144459200558
0.5780183921703806, 0.6278665940286601
0.5969767818257274, 0.6329352099610337
0.6159309329172283, 0.6392202937171771
0.6348815518721911, 0.6465191006597952
0.6538300515452309, 0.6544261415142985
0.6727736062271171, 0.6637523948298658
0.6917143351997728, 0.6738896266946135
0.7106515320358903, 0.6850405817458356
0.7295823710262387, 0.6980162385327122
0.7485082650254338, 0.7124111077806536
0.7674334525973212, 0.72700872166589
0.7863515758961321, 0.7436337819240759
0.8052668734857125, 0.7610698207314415
0.8241779325114469, 0.7797223273625766
0.8430861658279507, 0.7991858125428919
0.861993692717147, 0.8188520423605019
0.8808962746151896, 0.8399374846391765
0.8997974436586169, 0.861428416192441
0.9186908420016602, 0.88514953875595
0.9375814146354728, 0.9096816398686389
0.9564656294235168, 0.9360384427169823
0.975344899220407, 0.9638144580263905
0.9942262882992203, 0.9909822394239136
