x,y
0.009964536484410189, 0.979367462367543
0.025850650564215413, 0.956943632425971
0.041763032703425046, 0.938985372583149
0.05768147670249722, 0.9220576289169611
0.0736029516315007, 0.9056451433390906
0.08952644718045837, 0.8895761631534314
0.10544388086955346, 0.8724766667911381
0.12136434548857981, 0.8558924285171619
0.1372878410375375, 0.8398234483315028
0.1532113365864951, 0.8237544681458437
0.1691358424454299, 0.8078572406562905
0.185064389544273, 0.7926470239511603
0.20099495726307026, 0.7777803126382417
0.2169275456018217, 0.7632571067175344
0.23286821642038996, 0.7501079223656733
0.24881191816888948, 0.7374739961021293
0.2647596611572974, 0.7255270806230085
0.2807114453856136, 0.7142671759283106
0.2966703017837695, 0.7042095401063531
0.3126271375619712, 0.6938083988921837
0.32859104551001256, 0.6846095265507552
0.344555963768031, 0.6755824069054319
0.36052492326595786, 0.6672422980445321
0.3765039858636556, 0.6606197161446894
0.39248304846135335, 0.653997134244847
0.4084691832288907, 0.6485768212177447
0.4244532973764739, 0.6428130027984311
0.4404434733839197, 0.6380797005557519
0.456439711251228, 0.6343769144897071
0.4724339284985822, 0.6303306230314509
0.4884463313255239, 0.6293758801030986
0.504448631052695, 0.6267036102136883
0.52045295139982, 0.6243748457164897
0.5364794985664411, 0.6258246405336176
0.5525040251131079, 0.6269309299585344
0.5685245104198666, 0.6273502085990277
0.5845591400663044, 0.6301740249850016
0.6005998315726048, 0.6340283575476102
0.6166486055587219, 0.6392567116790648
0.6327044517146788, 0.6456873346832597
0.6487643391105439, 0.6528049684718775
0.6648272574363403, 0.6604378603488128
0.680893206692068, 0.6685860103140651
0.6969652178076584, 0.6777646764559522
0.7130463217130425, 0.6884891168627911
0.729132477168312, 0.7000723207501585
0.7452246944834441, 0.7126860408141604
0.7613219633484618, 0.7261585243586912
0.7774202425234564, 0.7398027605993278
0.7935235732483366, 0.7543057603204932
0.8096309452131251, 0.7694957708260814
0.8257413481078449, 0.7852010394199871
0.8418557922424731, 0.8015933187983157
0.8579762982369638, 0.8190161143532793
0.8740978145414315, 0.8366106626043481
0.8902233720858078, 0.85489222163984
0.9063499399401611, 0.8733455333714375
0.9224866108942853, 0.8935163720640926
0.9386202509184782, 0.913171952668431
0.9547549012526482, 0.9329992859688747
0.9708956134466806, 0.9538571354459529
0.9870454184305073, 0.9762607591879828
0.9973330681572496, 0.9923027977742527
