x,y
0.011037049944637084, 0.9872377121045188
0.02887343458691491, 0.9664495140822171
0.0467172018387301, 0.9450891638207697
0.06454620387147056, 0.9248731180376137
0.08237520590421099, 0.9046570722544587
0.10020420793695145, 0.8844410264713027
0.11803813170938346, 0.8638435458620499
0.13588189896119865, 0.842483195600602
0.1537109009939391, 0.822267149817447
0.17152513780760484, 0.8031954085125825
0.18931476592281268, 0.7860308413382051
0.20708962881894574, 0.7700105786421196
0.22487187432461622, 0.753418163706888
0.2426516589604409, 0.7370164661847052
0.26041667837719085, 0.7217590731408143
0.2781767760542492, 0.7068831149230204
0.29590488242331237, 0.6944864830748587
0.3136231453129923, 0.6828527208788921
0.3313192603740601, 0.6729354154003628
0.34901291456528216, 0.663208827334882
0.3666893426675838, 0.6548172611607419
0.38435838816034795, 0.6469978472257476
0.4020126684340374, 0.6403227377690457
0.41965710522834365, 0.6344104979645375
0.437289237673421, 0.6294518452252733
0.45491398750896095, 0.6250653447251544
0.47253135473496366, 0.6212509964641817
0.4901216523926626, 0.619534539746744
0.5077045674408242, 0.618390235268452
0.5252579520508363, 0.619534539746744
0.5428261018799231, 0.619534539746744
0.5603499560517856, 0.6229674531816194
0.5778713493538025, 0.6265910840295432
0.5953582904779783, 0.6328847586601483
0.6128427707323083, 0.6393691507038022
0.6303100248977178, 0.6471885646387965
0.64776989645359, 0.6555801308129365
0.6652199245300789, 0.6647345666392712
0.6826625699970305, 0.6744611547047521
0.7000904502449073, 0.685332047248524
0.7175084870134012, 0.696965809444491
0.7349043759532828, 0.7103160283578958
0.7522830388042439, 0.7250012691626408
0.7696518581758218, 0.740449379619581
0.7870132949378624, 0.756469642315666
0.8043722708300571, 0.7726806224248004
0.8217115597634856, 0.790417341838324
0.8390434660873767, 0.8087262134909934
0.8563630680620389, 0.8279886722089054
0.8736777482970094, 0.8476325657529156
0.89099242853198, 0.8672764592969249
0.9082997261574132, 0.8874925050800808
0.9256045629130006, 0.9078992682762852
0.9428995561892047, 0.9290689011246838
0.9601920885955634, 0.9504292513861317
0.9774747775225386, 0.9725524712997737
0.9916240760301546, 0.9899622465766424
