x,y
0.008462593527730516, 0.9905601321927546
0.024736747480063825, 0.9685708512256812
0.041011923999406424, 0.946237987743497
0.05727943126617954, 0.9264819931246417
0.07354796109996195, 0.9063824159906761
0.08981188938220269, 0.8878289601747078
0.10607377253042491, 0.8699626693889606
0.12233463311163786, 0.8524399611183238
0.13859242599182306, 0.8359480003930186
0.15485124143901755, 0.819112457152603
0.17110545533467034, 0.8038230352301845
0.1873566015292953, 0.789564360853098
0.20360570258990182, 0.775992851506232
0.2198527585164898, 0.7631085071895876
0.2361033934276102, 0.749021624070056
0.25234942678718897, 0.7364808622685219
0.26859341501274914, 0.7246272654972088
0.2848358693877955, 0.7132890424985614
0.3010742334948048, 0.7033251495603563
0.317308507333777, 0.694735586682593
0.3335381796212076, 0.6876921451228275
0.34976682934162895, 0.6809922860781721
0.3659939452115364, 0.6748078008061829
0.3822205497979394, 0.6687951067917486
0.3984461318173329, 0.6631259952924251
0.41466762356868947, 0.6588312138535433
0.430885025052009, 0.6559107624751039
0.447096291133273, 0.6550518061873276
0.4633136926165924, 0.6521313548088881
0.47952240228033327, 0.6521313548088881
0.49573111194407404, 0.6521313548088881
0.5119398216078149, 0.6521313548088881
0.5281485312715558, 0.6521313548088881
0.5443480378322133, 0.6552235974448828
0.5605495895268894, 0.6576286750506566
0.5767460283865191, 0.6617516652319828
0.5929414446791396, 0.6662182379284198
0.6091317481367138, 0.6724027232004091
0.6253215403107834, 0.6787589997299539
0.6415087760673297, 0.6859742325472746
0.6576944779733623, 0.6937048391372616
0.673877112178367, 0.70246619327258
0.6900566786823441, 0.7122582949532299
0.7062372677533303, 0.7217068141187695
0.7224147891232888, 0.7321860808296403
0.7385902653592287, 0.7433525125707323
0.7547636964611502, 0.7552061093420455
0.7709361049960624, 0.767403288628469
0.7871054458299468, 0.7806312154602242
0.8032758092308405, 0.793515559776869
0.8194441274977157, 0.8070870691237346
0.835610911914077, 0.8211739522432662
0.8517746286294103, 0.8362915829081292
0.8679373227777347, 0.8517527960881028
0.8840964379415265, 0.8684165480709634
0.9002519741207861, 0.8862828388567103
0.9164075103000454, 0.9041491296424577
0.9325620239122955, 0.9223590029433155
0.9487160262410411, 0.9407406675017287
0.9648690060027775, 0.9594659145752522
0.9810168729294674, 0.9799090742243284
0.994227270041064, 0.9971372831962988
