x,y
0.014186590874993577, 0.9717419712967355
0.038764864773434105, 0.9369133389614246
0.06331790923830982, 0.9077108703110486
0.08786975230158728, 0.8787763142170981
0.11242159536486473, 0.8498417581231472
0.1369710356249455, 0.8214430271420476
0.16151326747543637, 0.794651771499501
0.18604708951473903, 0.7697359037519325
0.21057370314445173, 0.7464275113429166
0.2350883027581812, 0.7257982444981557
0.25959809676551754, 0.7062406278790965
0.28410188376486206, 0.6880225740421646
0.30858885114183016, 0.6735552959951892
0.33306620730601183, 0.6612313183996179
0.35753515365900507, 0.6507827286990244
0.3819956902008101, 0.6422095268934094
0.406455025341017, 0.6339042376442201
0.43090114506364213, 0.6285459865157106
0.4553436605814725, 0.6239914730564777
0.4797717592801229, 0.6226519102743502
0.5041866425611918, 0.6242593856129031
0.5285895118262776, 0.6285459865157106
0.5529911796897649, 0.6331004999749434
0.5773868405452607, 0.6389945762163038
0.6017668831799783, 0.6483715156911953
0.6261433216099008, 0.6585521928353628
0.6505101488270368, 0.6708761704309345
0.6748709690361816, 0.6845397108086335
0.699224580835736, 0.6998107265248852
0.723572185627299, 0.7164213050232642
0.7479113806076738, 0.7349072714166214
0.7722457699816552, 0.7544648880356808
0.7965717495444482, 0.7758978925497182
0.820896527705643, 0.7975988096201811
0.8452116946540515, 0.8214430271420476
0.8695208545944684, 0.8466268074460417
0.8938276117316883, 0.8723464128628868
0.9181271604593184, 0.8996734936182844
0.9424195007773586, 0.9286080497122351
0.9667142438985956, 0.9570067806933347
0.9899106656786478, 0.9827799686214647
