x,y
0.012364255796107615, 0.9896075965149072
0.03152755000227381, 0.9716945997973148
0.050722346664759055, 0.9507678680918672
0.06995284611107253, 0.9264255700668507
0.08919594653991361, 0.9008777780466914
0.10842644598622711, 0.8765354800216745
0.1276527451050314, 0.8525950133283717
0.14686434307755344, 0.8300609562960677
0.1660738408863209, 0.8077278149296214
0.18527493804006998, 0.7861983362266023
0.2044634342112914, 0.7658743515187258
0.2236498302187582, 0.7457512824767059
0.24282992573496123, 0.7262309604322574
0.26198481928610906, 0.7091216263780926
0.2811229115272199, 0.6936196176507843
0.30025680344082173, 0.6785194402551897
0.31936759355312283, 0.6656293351840223
0.33846158235538715, 0.6543465554397114
0.35754927066638764, 0.6436665226929703
0.3766327586498789, 0.6333883212779439
0.3956952449958242, 0.6251192765214881
0.414749330686751, 0.6176538944284595
0.4337803145763772, 0.612398584659859
0.4527923969922121, 0.6089515158839705
0.4717897782617646, 0.6069108567690811
0.49078505936756256, 0.605071113320049
0.5097845408008697, 0.6028295385393028
0.5287441191228394, 0.6044053614098406
0.5476868961347724, 0.6075885096072331
0.5666254728191961, 0.6111734891363403
0.5855535486848468, 0.6157630469947324
0.6044606229129513, 0.6223617615116943
0.6233655969773014, 0.629161391694514
0.6422474692403508, 0.63817109420176
0.6611125401933633, 0.6487881220358624
0.67995660950883, 0.6614143065285343
0.6987964784967873, 0.6744423223529212
0.7176258466659716, 0.6884749165065926
0.7364426138526283, 0.7037130046554059
0.7552488802205121, 0.7199556711335044
0.7740425456058682, 0.7374038316067448
0.7928299104999604, 0.7554547390775568
0.8116088747390343, 0.7743093092117959
0.8303752379955806, 0.7943693733411776
0.8491290002695993, 0.8156349314657017
0.8678743618885995, 0.8377041522536528
0.8866092226888266, 0.8607779513708897
0.9053461836528084, 0.8836508348222694
0.9240642431429988, 0.9083319592663623
0.9427865029606985, 0.9326112523787411
0.9615045624508889, 0.9572923768228332
0.9802268222685884, 0.9815716699352124
0.9921809543597879, 0.9931986431837503
