x,y
0.005643794881011709, 0.9926352776577075
0.019815370036027354, 0.9734607283541239
0.033986945191043005, 0.955078515798622
0.048158520346058636, 0.9382809767392842
0.062330095501074295, 0.922117307078412
0.07650167065608993, 0.9062705721167725
0.09067324581110559, 0.8897899677566676
0.10484482096612122, 0.8733093633965625
0.11901639612113687, 0.8580964978333887
0.1331879712761525, 0.842566697570982
0.14735954643116816, 0.8276707667070411
0.1615311215861838, 0.8130917705423326
0.17570269674119945, 0.7985127743776244
0.18987427189621509, 0.7842507129121488
0.20404584705123074, 0.7709394555443716
0.2182174222062464, 0.7582620675750602
0.232388997361262, 0.7459016143049813
0.24656057251627767, 0.7346504324822174
0.2607321476712933, 0.7240331200579189
0.274903722826309, 0.7132573402840041
0.2890752979813246, 0.702798495209322
0.30324687313634024, 0.6923396501346399
0.3174184482913559, 0.6840993479545876
0.33159002344637156, 0.675859045774535
0.34576159860138717, 0.6692034170906465
0.3599331737564028, 0.6630231904556072
0.3741047489114185, 0.6577937679182662
0.38827632406643414, 0.652088943332076
0.40244789922144975, 0.6470179881443512
0.4166194743764654, 0.6425809023550921
0.43079104953148106, 0.6397284900619971
0.4449626246864967, 0.6375099471673675
0.4591341998415123, 0.6362422083704364
0.473305774996528, 0.6362422083704364
0.48747735015154364, 0.6362422083704364
0.5016489253065592, 0.6370345451185184
0.515820500461575, 0.6397284900619971
0.5299920756165906, 0.6422639676558595
0.5441636507716061, 0.6454333146481872
0.5583352259266219, 0.6498704004374465
0.5725068010816374, 0.6549413556251711
0.5866783762366532, 0.6609631149105939
0.6008499513916687, 0.6673018088952498
0.6150215265466845, 0.6741159049287548
0.6291931017017001, 0.6815638703607252
0.6433646768567158, 0.6901211072400104
0.6575362520117314, 0.6988368114689121
0.6717078271667469, 0.7085033197955124
0.6858794023217627, 0.7189621648701945
0.7000509774767782, 0.7305302813921912
0.714222552631794, 0.7430492020118862
0.7283941277868096, 0.7560435246804307
0.7425657029418253, 0.7687209126497421
0.7567372780968409, 0.7821906373671357
0.7709088532518564, 0.7961357641333784
0.7850804284068722, 0.8107147602980869
0.7992520035618877, 0.8251352891131787
0.8134235787169035, 0.8397142852778869
0.8275951538719191, 0.8547686834914443
0.8417667290269348, 0.8706154184530839
0.8559383041819504, 0.8872544901628052
0.8701098793369662, 0.904052029222143
0.8842814544919817, 0.9208495682814808
0.8984530296469972, 0.9379640420400515
0.912624604802013, 0.9553954504978549
0.9267961799570286, 0.9733022610045075
0.9409677551120443, 0.9900998000638452
0.9493418677036445, 0.9970723634469666
