x,y
0.009751760457582387, 0.9910186577820033
0.025546256284747063, 0.9734601965529699
0.04134075211191174, 0.95708944010591
0.057135247939076414, 0.9407186836588501
0.0729297437662411, 0.9236692387649483
0.08872423959340577, 0.9069591380944675
0.10451873542057043, 0.890758053759118
0.12031323124773512, 0.8752356578706106
0.13610772707489976, 0.8605616225406554
0.15190222290206445, 0.8458875872107003
0.16769671872922914, 0.8320619124392976
0.18349121455639383, 0.818914926114737
0.19928571038355852, 0.806446628237018
0.21508020621072316, 0.7944873466944307
0.23087470203788785, 0.7825280651518434
0.24666919786505254, 0.771247472056098
0.26246369369221717, 0.7599668789603524
0.27825818951938186, 0.7500436627582909
0.29405268534654655, 0.7401204465562297
0.30984718117371124, 0.7312152630244306
0.3256416770008759, 0.722988767939474
0.34143617282804056, 0.7156106334130699
0.35723066865520525, 0.7089111873335074
0.37302516448236994, 0.7032297739242079
0.3888196603095346, 0.6975483605149084
0.40461415613669927, 0.6930546518875822
0.42040865196386396, 0.6899183201539401
0.4362031477910286, 0.686103299973456
0.45199764361819333, 0.6855120499154708
0.46779213944535797, 0.6818667018466973
0.4835866352725226, 0.6814451239004227
0.49938113109968735, 0.6835686276298054
0.5151756269268519, 0.6846740986889253
0.5309701227540166, 0.6873066187534393
0.5467646185811813, 0.6902784830413744
0.5625591144083459, 0.6939290357761516
0.5783536102355107, 0.6992763096280334
0.5941481060626753, 0.7042842392564943
0.60994260188984, 0.71098889000206
0.6257370977170047, 0.7188812455295992
0.6415315935441693, 0.726943273168849
0.657326089371334, 0.7353446450315195
0.6731205851984987, 0.744424705341032
0.6889150810256633, 0.7541834540973866
0.704709576852828, 0.7649602355240039
0.7205040726799927, 0.7767550496208842
0.7362985685071574, 0.7893982242763169
0.752093064334322, 0.8020413989317494
0.7678875601614867, 0.8150239178106031
0.7836820559886514, 0.8291941414714303
0.7994765518158161, 0.8435340372439677
0.8152710476429808, 0.8582132772399262
0.8310655434701454, 0.8732318614593058
0.8468600392973101, 0.888929134125527
0.8626545351244748, 0.9047960789034588
0.8784490309516394, 0.9215113842399432
0.8942435267788041, 0.9382266895764275
0.9100380226059688, 0.9556206833597536
0.9258325184331334, 0.9730146771430799
0.941627014260298, 0.9904086709264062
0.950242193802388, 0.9987548733294407
