x,y
0.008112819124032666, 0.9850963115714486
0.02729491604777337, 0.9570267397222918
0.047200865685617516, 0.9320514513840656
0.06710681532346166, 0.9072971832966208
0.0870127649613058, 0.8827639354599564
0.10691871459914995, 0.8595568091279766
0.1268246642369941, 0.8367917232975581
0.14673061387483824, 0.8149107184702626
0.16663656351268238, 0.7930297136429676
0.18654251315052653, 0.7724748303203564
0.20644846278837067, 0.7541301495055537
0.22635441242621482, 0.7364485294430927
0.24626036206405896, 0.7209771118884394
0.2661663117019031, 0.7059477348353473
0.2860722613397473, 0.6931285602900634
0.30597821097759137, 0.6825195882525867
0.32588416061543546, 0.6723526567166722
0.34579011025327966, 0.6630698061838798
0.36569605989112375, 0.65422899615265
0.38560200952896795, 0.6467143076261035
0.40550795916681204, 0.6400837001026809
0.42541390880465624, 0.6352212545855038
0.4453198584425003, 0.6325690115761353
0.4652258080803445, 0.6325690115761353
0.4851317577181886, 0.6325690115761353
0.5050377073560328, 0.6325690115761353
0.5249436569938769, 0.6354422748362851
0.544849606631721, 0.6405257406042426
0.5647555562695652, 0.6467143076261035
0.5846615059074093, 0.6544500164034304
0.6045674555452535, 0.6635118466854415
0.6244734051830976, 0.6741208187229182
0.6443793548209418, 0.6864979527666408
0.6642853044587859, 0.7002012083150482
0.6841912540966301, 0.7150095651173589
0.7040972037344742, 0.7307020029227931
0.7240031533723184, 0.7474995419821306
0.7439091030101624, 0.7654021822953725
0.7638150526480066, 0.7837468631101752
0.7837210022858507, 0.8031966451788821
0.8036269519236949, 0.8233094879999316
0.823532901561539, 0.8454115130780075
0.8434388511993831, 0.868176598908426
0.8633448008372273, 0.8907206644880636
0.8832507504750715, 0.9143698313216051
0.9031567001129157, 0.9382400184059274
0.9230626497507597, 0.9627732662425919
0.9420637834959746, 0.9870412897783192
