x,y
0.01511574293673379, 0.9789647181082084
0.03905168461593683, 0.949394648508318
0.06300810575850263, 0.9174694406217112
0.08694177194177644, 0.8881610530536785
0.11087771362097953, 0.8585909834537886
0.1348045533164658, 0.8300676419813282
0.15871546454044777, 0.8033760747318701
0.18262182477257122, 0.7772078715461266
0.20651225653319033, 0.7528714425833849
0.2303935863100927, 0.7295817417480732
0.25425898761549065, 0.7081238151357638
0.2781107359453135, 0.688235980714599
0.3019397293158444, 0.6709649666120083
0.32575962070265846, 0.6547406806368472
0.34956130812203906, 0.6406098509165457
0.37334934256584446, 0.6280491133873887
0.39711689754628693, 0.617843514144949
0.4208639730633669, 0.6099930531892257
0.44460194659672997, 0.6031893203609324
0.46830806318708423, 0.6000491359786433
0.49201645527336785, 0.5966472695644969
0.5156929904166425, 0.5969089515963542
0.5393240156413335, 0.6024042742653601
0.5629823468171749, 0.6047594125520774
0.5866065455540781, 0.6110397813166557
0.6102170913154061, 0.6188902422723785
0.6338026066215132, 0.6296192055785337
0.6573744689520451, 0.6419182610758329
0.6809281273151433, 0.6563107728279918
0.7044704081985955, 0.6720116947394379
0.7279944851146143, 0.6898060729057436
0.7515140110387748, 0.7081238151357638
0.7750107820036429, 0.7290583776843587
0.7984916244970071, 0.7518247144559553
0.8219656405025837, 0.7753760973231243
0.8454282790285139, 0.8002358903495805
0.8688863665625861, 0.8256190474397518
0.8923490050885166, 0.850478840466208
0.9157888886551551, 0.8779554538112384
0.9392219457340059, 0.9062171132518415
0.9626459008291401, 0.9355255008198742
0.9860357234853363, 0.9687591188657683
0.999846846027586, 0.9895628403984342
