x,y
0.015258096347206374, 0.9766264605089183
0.0381072206754009, 0.9463702024699354
0.06095219476759001, 0.9166140478696134
0.08378471815176258, 0.888358203585274
0.10660271570991603, 0.8618527213362477
0.12940618744205018, 0.8370976011225344
0.15219720846616797, 0.8138427912248036
0.17499445484429393, 0.7898378261690817
0.19777925051440348, 0.7673331714293423
0.22054744524049108, 0.7468289304442466
0.24329488878655126, 0.728825206652455
0.26604025721460867, 0.7110715345799941
0.2887627993446359, 0.6960684314201677
0.31147911612065504, 0.681815483418333
0.3341767568346493, 0.6698130008904719
0.3568640219586301, 0.6590607769592631
0.37953468613858876, 0.6503089667826978
0.4021908244925282, 0.6433075186414456
0.42484073749245954, 0.6370562256581849
0.44747612466637154, 0.6325552947102369
0.47008453530624805, 0.6313050361135846
0.49268257035611074, 0.6313050361135846
0.5152785302879709, 0.6315550878329153
0.537832987859776, 0.6368061739388542
0.5604061214936058, 0.6398067945708197
0.5829543537114027, 0.64580803583475
0.6054735342771612, 0.6553100011693067
0.6279885646069143, 0.6653120699425241
0.6504952944646563, 0.6763143455930634
0.6729854233783765, 0.689317034998246
0.6954672518200856, 0.7033199312807505
0.7179304041997702, 0.719573293037229
0.7403852561074437, 0.7368268616710292
0.762833882661109, 0.7548305854628206
0.7852700585067578, 0.7743346195705947
0.8077041592344041, 0.7940887053976993
0.8301258092540336, 0.8153431015407864
0.8525453841556605, 0.8368475494032039
0.8749628839392845, 0.858602048984952
0.8973824588409116, 0.8801064968473695
0.9197999586245358, 0.9018609964291175
0.9422091579361489, 0.9246157028881872
0.9646059065397457, 0.9488707196632395
0.9869756786093067, 0.9763764087895876
1.0001796544607555, 0.9943801325813793
